{
    "_data":{
        "productList":[
            {
                "productId":"63329",
                "productLogo":"https://s1.huishoubao.com/img/phone/63329_20191106153008_114.jpg",
                "productMaxPrice":"714100",
                "productName":"iPhone 11 Pro Max",
                "icon":"",
                "activityIcon":"",
                "activityText":"",
                "activityDesc":""
            },
            {
                "productId":"63328",
                "productLogo":"https://s1.huishoubao.com/img/phone/63328_20191106155004_685.jpg",
                "productMaxPrice":"646200",
                "productName":"iPhone 11 Pro",
                "icon":"",
                "activityIcon":"",
                "activityText":"",
                "activityDesc":""
            },
            {
                "productId":"54789",
                "productLogo":"https://s1.huishoubao.com/img/phone/54789_20180922111355_945.png",
                "productMaxPrice":"474200",
                "productName":"iPhone XS Max",
                "icon":"",
                "activityIcon":"",
                "activityText":"",
                "activityDesc":""
            },
            {
                "productId":"54790",
                "productLogo":"https://s1.huishoubao.com/img/phone/54790_20180922111211_884.png",
                "productMaxPrice":"392600",
                "productName":"iPhone XS",
                "icon":"",
                "activityIcon":"",
                "activityText":"",
                "activityDesc":""
            },
            {
                "productId":"63330",
                "productLogo":"https://s1.huishoubao.com/img/phone/63330_20191106155429_525.png",
                "productMaxPrice":"438400",
                "productName":"iPhone 11",
                "icon":"",
                "activityIcon":"",
                "activityText":"",
                "activityDesc":""
            },
            {
                "productId":"41567",
                "productLogo":"https://s1.huishoubao.com/img/phone/41567_20191106154719_960.jpg",
                "productMaxPrice":"318900",
                "productName":"iPhone X",
                "icon":"",
                "activityIcon":"",
                "activityText":"",
                "activityDesc":""
            },
            {
                "productId":"54791",
                "productLogo":"https://s1.huishoubao.com/img/phone/54791_20180922111425_245.png",
                "productMaxPrice":"329800",
                "productName":"iPhone XR",
                "icon":"",
                "activityIcon":"",
                "activityText":"",
                "activityDesc":""
            },
            {
                "productId":"38201",
                "productLogo":"https://s1.huishoubao.com/img/phone/38201_20191106172137_892.jpg",
                "productMaxPrice":"290700",
                "productName":"iPhone 8 Plus",
                "icon":"",
                "activityIcon":"",
                "activityText":"",
                "activityDesc":""
            },
            {
                "productId":"64073",
                "productLogo":"https://s1.huishoubao.com/img/phone/411906_1587025302847.jpg",
                "productMaxPrice":"265100",
                "productName":"iPhone SE 2",
                "icon":"",
                "activityIcon":"",
                "activityText":"",
                "activityDesc":""
            },
            {
                "productId":"30832",
                "productLogo":"https://s1.huishoubao.com/img/phone/30832_20191106172219_783.png",
                "productMaxPrice":"184700",
                "productName":"iPhone 7 Plus",
                "icon":"",
                "activityIcon":"",
                "activityText":"",
                "activityDesc":""
            },
            {
                "productId":"38200",
                "productLogo":"https://s1.huishoubao.com/img/phone/38200_20191106172157_109.png",
                "productMaxPrice":"188400",
                "productName":"iPhone 8",
                "icon":"",
                "activityIcon":"",
                "activityText":"",
                "activityDesc":""
            },
            {
                "productId":"30831",
                "productLogo":"https://s1.huishoubao.com/img/phone/30831.jpg",
                "productMaxPrice":"131600",
                "productName":"iPhone 7",
                "icon":"",
                "activityIcon":"",
                "activityText":"",
                "activityDesc":""
            },
            {
                "productId":"30833",
                "productLogo":"https://s1.huishoubao.com/img/phone/30833.jpg",
                "productMaxPrice":"116100",
                "productName":"iPhone 6s Plus",
                "icon":"",
                "activityIcon":"",
                "activityText":"",
                "activityDesc":""
            },
            {
                "productId":"30834",
                "productLogo":"https://s1.huishoubao.com/img/phone/30834.jpg",
                "productMaxPrice":"92400",
                "productName":"iPhone 6s",
                "icon":"",
                "activityIcon":"",
                "activityText":"",
                "activityDesc":""
            },
            {
                "productId":"30747",
                "productLogo":"https://s1.huishoubao.com/img/phone/30747.jpg",
                "productMaxPrice":"94500",
                "productName":"iPhone 6 Plus",
                "icon":"",
                "activityIcon":"",
                "activityText":"",
                "activityDesc":""
            },
            {
                "productId":"30748",
                "productLogo":"https://s1.huishoubao.com/img/phone/30748.png",
                "productMaxPrice":"72500",
                "productName":"iPhone 6",
                "icon":"",
                "activityIcon":"",
                "activityText":"",
                "activityDesc":""
            },
            {
                "productId":"30835",
                "productLogo":"https://s1.huishoubao.com/img/phone/30835.jpg",
                "productMaxPrice":"85600",
                "productName":"iPhone SE",
                "icon":"",
                "activityIcon":"",
                "activityText":"",
                "activityDesc":""
            },
            {
                "productId":"30749",
                "productLogo":"https://s1.huishoubao.com/img/phone/30749.jpg",
                "productMaxPrice":"26700",
                "productName":"iPhone 5s",
                "icon":"",
                "activityIcon":"",
                "activityText":"",
                "activityDesc":""
            },
            {
                "productId":"30751",
                "productLogo":"https://s1.huishoubao.com/img/phone/30751.jpg",
                "productMaxPrice":"11500",
                "productName":"iPhone 5",
                "icon":"",
                "activityIcon":"",
                "activityText":"",
                "activityDesc":""
            },
            {
                "productId":"30752",
                "productLogo":"https://s1.huishoubao.com/img/phone/30752.jpg",
                "productMaxPrice":"6500",
                "productName":"iPhone 4s",
                "icon":"",
                "activityIcon":"",
                "activityText":"",
                "activityDesc":""
            }
        ],
        "pageInfo":{
            "pageIndex":"1",
            "pageSize":"20",
            "total":"24",
            "totalPage":2
        }
    },
    "_errCode":"0",
    "_errStr":"成功"
}